Absence and Exclusion Statistics • govstyle
…
absence_data <- absence_data_full %>%
  select(
    Period, Level, Year, Country,
    School_type, sess_possible, sess_overall
  ) %>%
  mutate(
    School_type = tolower(School_type)
  )

From a quick scan of the data, we can see that all the remaining character columns have been converted to factor, and we have two remaining numeric columns which are integer.

absence_data

## # A tibble: 185,543 x 7
##    Period    Level  Year   Country School_type   sess_possible sess_overall
##    <chr>     <chr>  <chr>  <chr>   <chr>                 <dbl>        <dbl>
##  1 Autumn a… NATIO… 2014/… England state-funded…     903233105     36435870
##  2 Autumn a… NATIO… 2014/… England state-funded…     685843532     35710933
##  3 Autumn a… REGION 2014/… England state-funded…      41518775      1722112
##  4 Autumn a… REGION 2014/… England state-funded…      34599612      1913808
##  5 Autumn a… REGION 2014/… England state-funded…     126645793      5031291
##  6 Autumn a… REGION 2014/… England state-funded…      94548657      4915927
##  7 Autumn a… REGION 2014/… England state-funded…      93318774      3841700
##  8 Autumn a… REGION 2014/… England state-funded…      69488849      3768854
##  9 Autumn a… REGION 2014/… England state-funded…      76578138      2985514
## 10 Autumn a… REGION 2014/… England state-funded…      59441808      3102930
## # … with 185,533 more rows
…
# Combine the two above dataframes

oar_summary <- bind_rows(
  oar_summary,
  oar_summary_combined
)

Note that combining the two dataframes above leads to School_type being coerced to character. This is not an issue for use here.

oar_summary

## # A tibble: 27 x 8
##    Period  Level Year  Country School_type sess_possible sess_overall   oar
##    <chr>   <chr> <chr> <chr>   <chr>               <dbl>        <dbl> <dbl>
##  1 Autumn… NATI… 2014… England state-fund…     903233105     36435870  4.03
##  2 Autumn… NATI… 2014… England state-fund…     685843532     35710933  5.21
##  3 Autumn… NATI… 2013… England state-fund…     911885281     35463299  3.89
##  4 Autumn… NATI… 2013… England state-fund…     709723446     35851556  5.05
##  5 Autumn… NATI… 2012… England state-fund…     831691005     40082227  4.82
##  6 Autumn… NATI… 2012… England state-fund…     678134219     39659737  5.85
##  7 Autumn… NATI… 2011… England state-fund…     828937182     36378170  4.39
##  8 Autumn… NATI… 2011… England state-fund…     695063926     39709398  5.71
##  9 Autumn… NATI… 2010… England state-fund…     859062270     44163589  5.14
## 10 Autumn… NATI… 2010… England state-fund…     744809290     48559089  6.52
## # … with 17 more rows
…
